Project 2: Data Mining, Classification, Prediction
…
library(tidyverse)
data <- read_csv("heart_failure_clinical_records_dataset.csv")
data

## # A tibble: 299 x 13
##      age anaemia creatinine_phos diabetes ejection_fracti high_blood_pres
##    <dbl>   <dbl>            <dbl>    <dbl>            <dbl>            <dbl>
##  1    75       0              582        0               20                1
##  2    55       0             7861        0               38                0
##  3    65       0              146        0               20                0
##  4    50       1              111        0               20                0
##  5    65       1              160        1               20                0
##  6    90       1               47        0               40                1
##  7    75       1              246        0               15                0
##  8    60       1              315        1               60                0
##  9    65       0              157        0               65                0
## 10    80       1              123        0               35                1
## #  with 289 more rows, and 7 more variables: platelets <dbl>,
## #   serum_creatinine <dbl>, serum_sodium <dbl>, sex <dbl>, smoking <dbl>,
## #   time <dbl>, DEATH_EVENT <dbl>

heart <- data %>% mutate(anaemia1 = ifelse(anaemia == 1, "yes", 
    "no"), diabetes1 = ifelse(diabetes == 1, "yes", "no"), high_blood_pressure1 = ifelse(high_blood_pressure == 
    1, "yes", "no"), smoking1 = ifelse(smoking == 1, "yes", "no"), 
    death_event = ifelse(DEATH_EVENT == 1, "yes", "no"), gender = ifelse(sex == 
        1, "male", "female")) %>% select(-anaemia, -diabetes, 
    -high_blood_pressure, -smoking, -DEATH_EVENT, -sex)
heart

## # A tibble: 299 x 13
##      age creatinine_phos ejection_fracti platelets serum_creatinine
##    <dbl>            <dbl>            <dbl>     <dbl>            <dbl>
##  1    75              582               20   265000               1.9
##  2    55             7861               38   263358.              1.1
##  3    65              146               20   162000               1.3
##  4    50              111               20   210000               1.9
##  5    65              160               20   327000               2.7
##  6    90               47               40   204000               2.1
##  7    75              246               15   127000               1.2
##  8    60              315               60   454000               1.1
##  9    65              157               65   263358.              1.5
## 10    80              123               35   388000               9.4
## #  with 289 more rows, and 8 more variables: serum_sodium <dbl>, time <dbl>,
## #   anaemia1 <chr>, diabetes1 <chr>, high_blood_pressure1 <chr>,
## #   smoking1 <chr>, death_event <chr>, gender <chr>
…
PC1 is age/serum creatinine vs.other numerical variables, higher PC1 score means higher age/creatinine and lower other numerical variables; PC2 is CP/time vs.age/ejection fraction/platelets/serum sodium, lower PC2 score means higher CP/time and lower age/ejection fraction/platelets/serum sodium; PC3 is ejection fraction/time vs.CP/platelets/serum creatinine/serum sodium, higher PC3 score means higher ejection fraction/time and lower CP/platelets/serum creatinine/serum sodium. PC4 is age/CP/serum sodium vs.platelets/serum creatinine/time, higher PC4 score means higher age/CP/serum sodium and lower platelets/serum creatinine/time. PC5 is age/platelets/serum sodium vs.CP/ejection fraction/serum creatinine/time, higher PC5 score means higher age/platelets/serum sodium and lower CP/ejection fraction/serum creatinine/time. At the end, 79% of total variance in the dataset is explained by these PCs.

Linear Classifier

heart

## # A tibble: 299 x 13
##      age creatinine_phos ejection_fracti platelets serum_creatinine
##    <dbl>            <dbl>            <dbl>     <dbl>            <dbl>
##  1    75              582               20   265000               1.9
##  2    55             7861               38   263358.              1.1
##  3    65              146               20   162000               1.3
##  4    50              111               20   210000               1.9
##  5    65              160               20   327000               2.7
##  6    90               47               40   204000               2.1
##  7    75              246               15   127000               1.2
##  8    60              315               60   454000               1.1
##  9    65              157               65   263358.              1.5
## 10    80              123               35   388000               9.4
## #  with 289 more rows, and 8 more variables: serum_sodium <dbl>, time <dbl>,
## #   anaemia1 <chr>, diabetes1 <chr>, high_blood_pressure1 <chr>,
## #   smoking1 <chr>, death_event <chr>, gender <chr>
…
##       acc    sens  spec     ppv  f1      ba     auc
## 1 0.74942 0.40241 0.911 0.64547 NaN 0.65671 0.76276

The KNN model is performing fair with an AUC of 0.7612. When predicting new observations in cross-validation, this model is also performing fair with an AUC of 0.7628. Therefore, there is no sign of decrease in AUC which means no sign of overfitting. Compared to the logistic regression model, the KNN model performs less well on predicting observations.

Regression/Numeric Prediction

heart

## # A tibble: 299 x 13
##      age creatinine_phos ejection_fracti platelets serum_creatinine
##    <dbl>            <dbl>            <dbl>     <dbl>            <dbl>
##  1    75              582               20   265000               1.9
##  2    55             7861               38   263358.              1.1
##  3    65              146               20   162000               1.3
##  4    50              111               20   210000               1.9
##  5    65              160               20   327000               2.7
##  6    90               47               40   204000               2.1
##  7    75              246               15   127000               1.2
##  8    60              315               60   454000               1.1
##  9    65              157               65   263358.              1.5
## 10    80              123               35   388000               9.4
## #  with 289 more rows, and 8 more variables: serum_sodium <dbl>, time <dbl>,
## #   anaemia1 <chr>, diabetes1 <chr>, high_blood_pressure1 <chr>,
## #   smoking1 <chr>, death_event <chr>, gender <chr>
…
